{
  "project_info": {
    "project_number": "893597728549",
    "project_id": "appfirebase-e64a2",
    "storage_bucket": "appfirebase-e64a2.appspot.com"
  },
  "client": [
    {
      "client_info": {
        "mobilesdk_app_id": "1:893597728549:android:108ab64595f734432824cc",
        "android_client_info": {
          "package_name": "com.example.appfirebase"
        }
      },
      "oauth_client": [
        {
          "client_id": "893597728549-j12gi2mif2hbrkhkasmk1h92s22t9hqn.apps.googleusercontent.com",
          "client_type": 3
        }
      ],
      "api_key": [
        {
          "current_key": "AIzaSyBllaOinBMe565hCn7v6gvnHdIGtDfC17A"
        }
      ],
      "services": {
        "appinvite_service": {
          "other_platform_oauth_client": [
            {
              "client_id": "893597728549-j12gi2mif2hbrkhkasmk1h92s22t9hqn.apps.googleusercontent.com",
              "client_type": 3
            }
          ]
        }
      }
    }
  ],
  "configuration_version": "1"
}